<?php

/**
 * This file is part of the Europa SDK for PHP.
 *
 * Copyright Youngmedia.
 *
 * For the full copyright and license information, please view the LICENSE
 * file that was distributed with this source code.
 */

namespace Europa\ApiObjects;

use ArrayAccess;
use ArrayIterator;
use Countable;
use IteratorAggregate;

/**
 * Class Collection
 *
 * @author Łukasz Proksa <lukasz.proksa@youngmedia.pl>
 *
 * @package Europa
 */
class Collection implements ArrayAccess, Countable, IteratorAggregate
{
    /**
     * The items contained in the collection.
     *
     * @var array
     */
    private $items = [];

    /**
     * Creates a new collection.
     *
     * @param array $items
     */
    public function __construct(array $items = [])
    {
        $this->items = $items;
    }

    /**
     * Determines if an item exists at an offset.
     *
     * @param mixed $key
     *
     * @return bool
     */
    public function offsetExists($key)
    {
        return array_key_exists($key, $this->items);
    }

    /**
     * Gets an item at a given offset.
     *
     * @param mixed $key
     *
     * @return mixed
     */
    public function offsetGet($key)
    {
        return $this->items[$key];
    }

    /**
     * Sets the item at a given offset.
     *
     * @param mixed $key
     * @param mixed $value
     */
    public function offsetSet($key, $value)
    {
        if (is_null($key)) {
            $this->items[] = $value;
        } else {
            $this->items[$key] = $value;
        }
    }

    /**
     * Unsets the item at a given offset.
     *
     * @param string $key
     */
    public function offsetUnset($key)
    {
        unset($this->items[$key]);
    }

    /**
     * Counts the number of items in the collection.
     *
     * @return int
     */
    public function count()
    {
        return count($this->items);
    }

    /**
     * Gets an iterator for the items.
     *
     * @return ArrayIterator
     */
    public function getIterator()
    {
        return new ArrayIterator($this->items);
    }

    /**
     * Gets the collection of items as a plain array.
     *
     * @return array
     */
    public function asArray()
    {
        return array_map(function ($value) {
            return $value instanceof Collection ? $value->asArray() : $value;
        }, $this->items);
    }

    /**
     * Gets the collection of items as JSON.
     *
     * @return string
     */
    public function asJson()
    {
        return json_encode($this->asArray());
    }
}

